CFSS Homework 03
…
Part 2

Load the data.

library(gapminder)
hiv <- read_excel("J:/sample_data/hiv-prevalence.xlsx")
hiv

## # A tibble: 275 x 34
##    `Estimated HIV ~ `1979.0` `1980.0` `1981.0` `1982.0` `1983.0` `1984.0`
##    <chr>               <dbl>    <dbl>    <dbl>    <dbl>    <dbl>    <dbl>
##  1 Abkhazia          NA            NA       NA       NA       NA       NA
##  2 Afghanistan       NA            NA       NA       NA       NA       NA
##  3 Akrotiri and Dh~  NA            NA       NA       NA       NA       NA
##  4 Albania           NA            NA       NA       NA       NA       NA
##  5 Algeria           NA            NA       NA       NA       NA       NA
##  6 American Samoa    NA            NA       NA       NA       NA       NA
##  7 Andorra           NA            NA       NA       NA       NA       NA
##  8 Angola             0.0265       NA       NA       NA       NA       NA
##  9 Anguilla          NA            NA       NA       NA       NA       NA
## 10 Antigua and Bar~  NA            NA       NA       NA       NA       NA
## # ... with 265 more rows, and 27 more variables: `1985.0` <dbl>,
## #   `1986.0` <dbl>, `1987.0` <dbl>, `1988.0` <lgl>, `1989.0` <lgl>,
## #   `1990.0` <dbl>, `1991.0` <dbl>, `1992.0` <dbl>, `1993.0` <dbl>,
## #   `1994.0` <dbl>, `1995.0` <dbl>, `1996.0` <dbl>, `1997.0` <dbl>,
## #   `1998.0` <dbl>, `1999.0` <dbl>, `2000.0` <dbl>, `2001.0` <dbl>,
## #   `2002.0` <dbl>, `2003.0` <dbl>, `2004.0` <dbl>, `2005.0` <dbl>,
## #   `2006.0` <dbl>, `2007.0` <dbl>, `2008.0` <dbl>, `2009` <chr>,
## #   `2010` <chr>, `2011` <chr>
Fix the country column.

colnames(hiv)[1] <- "country"

Are the same countries in both datasets?

# Which countries are in the gapminder dataset
gapminder_names <- unique(as.character(gapminder$country))

# Filter the HIV dataset to include only those countries in gapminder
(hiv2 <- hiv %>%
  filter(country %in% gapminder_names)
)

## # A tibble: 139 x 34
##    country `1979.0` `1980.0` `1981.0` `1982.0` `1983.0` `1984.0` `1985.0`
##    <chr>      <dbl>    <dbl>    <dbl>    <dbl>    <dbl>    <dbl>    <dbl>
##  1 Afghan~  NA            NA  NA       NA       NA            NA       NA
##  2 Albania  NA            NA  NA       NA       NA            NA       NA
##  3 Algeria  NA            NA  NA       NA       NA            NA       NA
##  4 Angola    0.0265       NA  NA       NA       NA            NA       NA
##  5 Argent~   0.0205       NA  NA       NA       NA            NA       NA
##  6 Austra~  NA            NA  NA       NA        0.0127       NA       NA
##  7 Austria  NA            NA   0.0102  NA       NA            NA       NA
##  8 Bahrain  NA            NA  NA       NA       NA            NA       NA
##  9 Bangla~  NA            NA  NA       NA       NA            NA       NA
## 10 Belgium  NA            NA  NA        0.0141  NA            NA       NA
## # ... with 129 more rows, and 26 more variables: `1986.0` <dbl>,
## #   `1987.0` <dbl>, `1988.0` <lgl>, `1989.0` <lgl>, `1990.0` <dbl>,
## #   `1991.0` <dbl>, `1992.0` <dbl>, `1993.0` <dbl>, `1994.0` <dbl>,
## #   `1995.0` <dbl>, `1996.0` <dbl>, `1997.0` <dbl>, `1998.0` <dbl>,
## #   `1999.0` <dbl>, `2000.0` <dbl>, `2001.0` <dbl>, `2002.0` <dbl>,
## #   `2003.0` <dbl>, `2004.0` <dbl>, `2005.0` <dbl>, `2006.0` <dbl>,
## #   `2007.0` <dbl>, `2008.0` <dbl>, `2009` <chr>, `2010` <chr>,
## #   `2011` <chr>

Tidy the HIV data frame.

(hiv3 <- hiv2 %>%
  gather(key = year, value = hiv_prevalence, -country)
)

## # A tibble: 4,587 x 3
##    country     year   hiv_prevalence
##    <chr>       <chr>  <chr>         
##  1 Afghanistan 1979.0 <NA>          
##  2 Albania     1979.0 <NA>          
##  3 Algeria     1979.0 <NA>          
##  4 Angola      1979.0 0.026527865   
##  5 Argentina   1979.0 0.02050798    
##  6 Australia   1979.0 <NA>          
##  7 Austria     1979.0 <NA>          
##  8 Bahrain     1979.0 <NA>          
##  9 Bangladesh  1979.0 <NA>          
## 10 Belgium     1979.0 <NA>          
## # ... with 4,577 more rows
…
HIV Prevalence & Life Expectancy

I will use a left_join() to keep all original columns and observations from gapminder, effectively appending the HIV prevalence variable to the dataset.

(gap_hiv <- left_join(gapminder, hiv3, by = c("country", "year")))

## Warning: Column `country` joining factor and character vector, coercing
## into character vector

## # A tibble: 1,704 x 7
##    country     continent  year lifeExp      pop gdpPercap hiv_prevalence
##    <chr>       <fct>     <int>   <dbl>    <int>     <dbl>          <dbl>
##  1 Afghanistan Asia       1952    28.8  8425333      779.             NA
##  2 Afghanistan Asia       1957    30.3  9240934      821.             NA
##  3 Afghanistan Asia       1962    32.0 10267083      853.             NA
##  4 Afghanistan Asia       1967    34.0 11537966      836.             NA
##  5 Afghanistan Asia       1972    36.1 13079460      740.             NA
##  6 Afghanistan Asia       1977    38.4 14880372      786.             NA
##  7 Afghanistan Asia       1982    39.9 12881816      978.             NA
##  8 Afghanistan Asia       1987    40.8 13867957      852.             NA
##  9 Afghanistan Asia       1992    41.7 16317921      649.             NA
## 10 Afghanistan Asia       1997    41.8 22227415      635.             NA
## # ... with 1,694 more rows
…
Select only these variables from both datasets.

modern_sm <- modern %>%
  select(caseIssuesId, term, justice, justiceName, decisionDirection,
         majVotes, minVotes, majority, chief, dateDecision, decisionType)

legacy_sm <- legacy %>%
  select(caseIssuesId, term, justice, justiceName, decisionDirection,
         majVotes, minVotes, majority, chief, dateDecision, decisionType)

Bind the rows to create a combined data frame.

(supreme <- bind_rows(modern_sm, legacy_sm))

## # A tibble: 251,072 x 11
##    caseIssuesId  term justice justiceName decisionDirecti~ majVotes
##    <chr>        <dbl>   <dbl> <chr>                  <dbl>    <dbl>
##  1 1946-001-01~  1946      86 HHBurton                   2        8
##  2 1946-001-01~  1946      84 RHJackson                  2        8
##  3 1946-001-01~  1946      81 WODouglas                  2        8
##  4 1946-001-01~  1946      80 FFrankfurt~                2        8
##  5 1946-001-01~  1946      79 SFReed                     2        8
##  6 1946-001-01~  1946      78 HLBlack                    2        8
##  7 1946-001-01~  1946      85 WBRutledge                 2        8
##  8 1946-001-01~  1946      82 FMurphy                    2        8
##  9 1946-001-01~  1946      87 FMVinson                   2        8
## 10 1946-002-01~  1946      86 HHBurton                   1        6
## # ... with 251,062 more rows, and 5 more variables: minVotes <dbl>,
## #   majority <dbl>, chief <chr>, dateDecision <chr>, decisionType <dbl>
There was no issue binding the two data frames together. This might be due to the selection of columns prior to binding, or the fact that I downloaded the datasets directly from the Supreme Court Database.

Percentage of Cases Decided by One-vote Margin

The observational unit is at the individual justice level per case. First, we need to count the number of cases per term.

(cases_per_term <- supreme %>%
  # n represents the number of justices
  count(term, caseIssuesId) %>%
  group_by(term) %>%
  summarize(
    num_cases = n()
  ))

## # A tibble: 224 x 2
##     term num_cases
##    <dbl>     <int>
##  1  1791         2
##  2  1792         4
##  3  1793         3
##  4  1794         2
##  5  1795         6
##  6  1796        16
##  7  1797         8
##  8  1798         6
##  9  1799         7
## 10  1800         9
## # ... with 214 more rows
…
(num_marginal_votes <- supreme %>%
  # Create new margin variable
  mutate(margin = majVotes - minVotes) %>%
  # n represents the number of justices
  count(term, caseIssuesId, margin) %>%
  # Only cases with a one-vote margin
  filter(margin == 1) %>%
  # Group cases by term
  group_by(term) %>%
  summarize(
    num_marginal_votes = n()
  ))

## # A tibble: 156 x 2
##     term num_marginal_votes
##    <dbl>              <int>
##  1  1794                  1
##  2  1816                  1
##  3  1818                  1
##  4  1822                  1
##  5  1827                  2
##  6  1830                  1
##  7  1837                  1
##  8  1845                  2
##  9  1849                  2
## 10  1850                  6
## # ... with 146 more rows

Now, we can left_join the two data frames. Missing values for the variable marginal_votes indicates that the term had no one-vote margins.

(one_vote_terms <- left_join(cases_per_term, num_marginal_votes, by = "term"))

## # A tibble: 224 x 3
##     term num_cases num_marginal_votes
##    <dbl>     <int>              <int>
##  1  1791         2                 NA
##  2  1792         4                 NA
##  3  1793         3                 NA
##  4  1794         2                  1
##  5  1795         6                 NA
##  6  1796        16                 NA
##  7  1797         8                 NA
##  8  1798         6                 NA
##  9  1799         7                 NA
## 10  1800         9                 NA
## # ... with 214 more rows
…
Percentage of cases decided by a one-vote margin.

one_vote_terms %>%
  mutate(percent_marginal = num_marginal_votes / num_cases)

## # A tibble: 224 x 4
##     term num_cases num_marginal_votes percent_marginal
##    <dbl>     <int>              <dbl>            <dbl>
##  1  1791         2                  0              0  
##  2  1792         4                  0              0  
##  3  1793         3                  0              0  
##  4  1794         2                  1              0.5
##  5  1795         6                  0              0  
##  6  1796        16                  0              0  
##  7  1797         8                  0              0  
##  8  1798         6                  0              0  
##  9  1799         7                  0              0  
## 10  1800         9                  0              0  
## # ... with 214 more rows
…
Percentage of Cases Justice Antonin Scalia in Majority

Remember, if majority == 2, then Justice Scalia was in the majority.

# Total number of cases for Scalia
(scalia_total <- supreme %>%
  filter(justiceName == "AScalia") %>%
 count(term))

## # A tibble: 30 x 2
##     term     n
##    <dbl> <int>
##  1  1986   161
##  2  1987   153
##  3  1988   152
##  4  1989   140
##  5  1990   129
##  6  1991   120
##  7  1992   119
##  8  1993    96
##  9  1994    92
## 10  1995    91
## # ... with 20 more rows

# Cases in which Scalia was in majority
(scalia_majority <- supreme %>%
  filter(justiceName == "AScalia") %>%
  group_by(term, majority) %>%
  summarize(num_majority = n()) %>%
  filter(majority == 2))

## # A tibble: 30 x 3
## # Groups:   term [30]
##     term majority num_majority
##    <dbl>    <dbl>        <int>
##  1  1986        2          130
##  2  1987        2          122
##  3  1988        2          132
##  4  1989        2          116
##  5  1990        2          106
##  6  1991        2           96
##  7  1992        2          111
##  8  1993        2           84
##  9  1994        2           76
## 10  1995        2           74
## # ... with 20 more rows
…
How many cases were non-unanimous in each term? As long as there is at least one dissent, then the decision was not unanimous. That is, the case is non-unanimous if minVotes > 0.

(num_non_unanimous <- supreme %>%
  # Group all justices into each case; n represents number of justices
  count(caseIssuesId, term, minVotes) %>%
  # Only non-unanimous decisions
  filter(minVotes > 0) %>%
  group_by(term) %>%
  # Number of non-unanimous decisions per term
  summarize(
    non_unanimous_decisions = n()
  ))

## # A tibble: 214 x 2
##     term non_unanimous_decisions
##    <dbl>                   <int>
##  1  1792                       1
##  2  1793                       2
##  3  1795                       2
##  4  1796                       1
##  5  1798                       1
##  6  1806                       1
##  7  1807                       4
##  8  1808                       1
##  9  1809                       5
## 10  1810                       2
## # ... with 204 more rows
…
First, we need to calculate the number of cases decided in the conservative direction. Remember, if decisionDirection == 1, then the case was decided in the conservative direction.

(num_conservative <- supreme %>%
  # Lump individual justices into single cases
  count(term, caseIssuesId, decisionDirection) %>%
  # Keep only the cases where the decision was conservative
  filter(decisionDirection == 1) %>%
  # Group the cases by term
  group_by(term) %>%
  # Number of cases that were conservatively decided
  summarize(
    conservative_decisions = n()
  ))

## # A tibble: 224 x 2
##     term conservative_decisions
##    <dbl>                  <int>
##  1  1791                      1
##  2  1792                      1
##  3  1793                      1
##  4  1794                      1
##  5  1795                      3
##  6  1796                      3
##  7  1797                      4
##  8  1798                      4
##  9  1799                      3
## 10  1800                      5
## # ... with 214 more rows

Join the two data frames and calculate the percentage of conservative decisions.

(conservative <- left_join(cases_per_term, num_conservative, by = "term") %>%
  # Percentage of conservative decisions per term
  mutate(percent_conservative = conservative_decisions / num_cases))

## # A tibble: 224 x 4
##     term num_cases conservative_decisions percent_conservative
##    <dbl>     <int>                  <int>                <dbl>
##  1  1791         2                      1                0.5  
##  2  1792         4                      1                0.25 
##  3  1793         3                      1                0.333
##  4  1794         2                      1                0.5  
##  5  1795         6                      3                0.5  
##  6  1796        16                      3                0.188
##  7  1797         8                      4                0.5  
##  8  1798         6                      4                0.667
##  9  1799         7                      3                0.429
## 10  1800         9                      5                0.556
## # ... with 214 more rows
…
